module Publisher

go 1.18

require github.com/nats-io/stan.go v0.10.2

require (
	github.com/gogo/protobuf v1.3.2 // indirect
	github.com/nats-io/nats.go v1.13.0 // indirect
	github.com/nats-io/nkeys v0.3.0 // indirect
	github.com/nats-io/nuid v1.0.1 // indirect
	golang.org/x/crypto v0.0.0-20210314154223-e6e6c4f2bb5b // indirect
)
